Type,ID,lon,lat,azimuth,width,range,valid_from,valid_to,metadata,address
CGI,452-02-4272-27549,105.03061,8.74013,60,360,1,2018-08-26T12:12:00-08:00,2023-08-30T18:06:00-08:00,Vietnam,Ấp Đồng Khởi - xã Tân Ân Tây - huyện Ngọc Hiển - tỉnh Cà Mau
CGI,452-02-4272-27548,105.03061,8.74013,60,360,1,2018-08-26T12:12:00-08:00,2023-08-30T18:06:00-08:00,Vietnam,Ấp Đồng Khởi - xã Tân Ân Tây - huyện Ngọc Hiển - tỉnh Cà Mau
CGI,452-02-4272-27547,105.03061,8.74013,60,360,1,2018-08-26T12:12:00-08:00,2023-08-30T18:06:00-08:00,Vietnam,Ấp Đồng Khởi - xã Tân Ân Tây - huyện Ngọc Hiển - tỉnh Cà Mau
CGI,452-02-4272-27539,104.846855,8.687915,60,360,1,2018-08-26T12:12:00-08:00,2023-08-30T18:06:00-08:00,Vietnam,Ấp Trại Xéo - xã Viên An - huyện Ngọc Hiển - tỉnh Cà Mau
CGI,452-02-4272-27538,104.846855,8.687915,60,360,1,2018-08-26T12:12:00-08:00,2023-08-30T18:06:00-08:00,Vietnam,Ấp Trại Xéo - xã Viên An - huyện Ngọc Hiển - tỉnh Cà Mau
CGI,452-02-4272-27537,104.846855,8.687915,60,360,1,2018-08-26T12:12:00-08:00,2023-08-30T18:06:00-08:00,Vietnam,Ấp Trại Xéo - xã Viên An - huyện Ngọc Hiển - tỉnh Cà Mau
CGI,452-02-567-22532,105.99774,22.426101,60,360,1,2018-08-26T12:12:00-08:00,2023-08-30T18:06:00-08:00,Vietnam,Thôn Khu 2 Xã Vân Tùng huyện Ngân Sơn
CGI,452-02-314-14824,108.06308,12.693201,60,360,1,2018-08-26T12:12:00-08:00,2023-08-30T18:06:00-08:00,Vietnam,"81 Nguyễn Tất Thành, Phường Tân An, Thành phố Buôn Ma Thuột, Tỉnh Đắk Lắk"
CGI,452-02-314-14829,108.06308,12.693201,60,360,1,2018-08-26T12:12:00-08:00,2023-08-30T18:06:00-08:00,Vietnam,"81 Nguyễn Tất Thành, Phường Tân An, Thành phố Buôn Ma Thuột, Tỉnh Đắk Lắk"
CGI,452-02-314-14828,108.06308,12.693201,60,360,1,2018-08-26T12:12:00-08:00,2023-08-30T18:06:00-08:00,Vietnam,"81 Nguyễn Tất Thành, Phường Tân An, Thành phố Buôn Ma Thuột, Tỉnh Đắk Lắk"
CGI,452-02-314-14827,108.06308,12.693201,60,360,1,2018-08-26T12:12:00-08:00,2023-08-30T18:06:00-08:00,Vietnam,"81 Nguyễn Tất Thành, Phường Tân An, Thành phố Buôn Ma Thuột, Tỉnh Đắk Lắk"
CGI,452-02-11602-3322,105.126725,20.772715,60,360,1,2018-08-26T12:12:00-08:00,2023-08-30T18:06:00-08:00,Vietnam,Bùi Văn Hiển - Xóm Điêng - Xã Tiền Phong
CGI,452-02-11602-3321,105.126725,20.772715,60,360,1,2018-08-26T12:12:00-08:00,2023-08-30T18:06:00-08:00,Vietnam,Bùi Văn Hiển - Xóm Điêng - Xã Tiền Phong
CGI,452-02-11621-23383,105.836328,20.71147,60,360,1,2018-08-26T12:12:00-08:00,2023-08-30T18:06:00-08:00,Vietnam,"Thôn Mỹ Cầu, xã Đồng Tân, huyện Ứng Hòa, Hà Nội"
CGI,452-02-11621-23382,105.836328,20.71147,60,360,1,2018-08-26T12:12:00-08:00,2023-08-30T18:06:00-08:00,Vietnam,"Thôn Mỹ Cầu, xã Đồng Tân, huyện Ứng Hòa, Hà Nội"
CGI,452-02-11621-23381,105.836328,20.71147,60,360,1,2018-08-26T12:12:00-08:00,2023-08-30T18:06:00-08:00,Vietnam,"Thôn Mỹ Cầu, xã Đồng Tân, huyện Ứng Hòa, Hà Nội"
CGI,452-02-11571-21203,105.850734,20.928352,60,360,1,2018-08-26T12:12:00-08:00,2023-08-30T18:06:00-08:00,Vietnam,"Tập thể đường sắt, thôn Lưu Phái, xã Ngũ Hiệp, huyện Thanh Trì"
CGI,452-02-11571-21202,105.850734,20.928352,60,360,1,2018-08-26T12:12:00-08:00,2023-08-30T18:06:00-08:00,Vietnam,"Tập thể đường sắt, thôn Lưu Phái, xã Ngũ Hiệp, huyện Thanh Trì"
CGI,452-02-11571-21201,105.850734,20.928352,60,360,1,2018-08-26T12:12:00-08:00,2023-08-30T18:06:00-08:00,Vietnam,"Tập thể đường sắt, thôn Lưu Phái, xã Ngũ Hiệp, huyện Thanh Trì"
CGI,452-02-11571-21122,105.87812,20.970643,60,360,1,2018-08-26T12:12:00-08:00,2023-08-30T18:06:00-08:00,Vietnam,"Tòa nhà The Two Residence - P. Trần Phú, Q. Hoàng Mai, Hà Nội"
CGI,452-02-11571-21121,105.87812,20.970643,60,360,1,2018-08-26T12:12:00-08:00,2023-08-30T18:06:00-08:00,Vietnam,"Tòa nhà The Two Residence - P. Trần Phú, Q. Hoàng Mai, Hà Nội"
CGI,452-02-11511-23163,105.748368,21.031401,60,360,1,2018-08-26T12:12:00-08:00,2023-08-30T18:06:00-08:00,Vietnam,"UBND phường Xuân Phương, tổ dân phố số 3, phường Xuân Phương, quận Nam Từ Liêm"
CGI,452-02-11511-23162,105.748368,21.031401,60,360,1,2018-08-26T12:12:00-08:00,2023-08-30T18:06:00-08:00,Vietnam,"UBND phường Xuân Phương, tổ dân phố số 3, phường Xuân Phương, quận Nam Từ Liêm"
CGI,452-02-11511-23161,105.748368,21.031401,60,360,1,2018-08-26T12:12:00-08:00,2023-08-30T18:06:00-08:00,Vietnam,"UBND phường Xuân Phương, tổ dân phố số 3, phường Xuân Phương, quận Nam Từ Liêm"
CGI,452-02-11511-23153,105.767076,21.011462,60,360,1,2018-08-26T12:12:00-08:00,2023-08-30T18:06:00-08:00,Vietnam,"Tổ 5 Phú Đô, phường Phú Đô, quận Nam Từ Liêm"
CGI,452-02-11511-23152,105.767076,21.011462,60,360,1,2018-08-26T12:12:00-08:00,2023-08-30T18:06:00-08:00,Vietnam,"Tổ 5 Phú Đô, phường Phú Đô, quận Nam Từ Liêm"
CGI,452-02-11511-23151,105.767076,21.011462,60,360,1,2018-08-26T12:12:00-08:00,2023-08-30T18:06:00-08:00,Vietnam,"Tổ 5 Phú Đô, phường Phú Đô, quận Nam Từ Liêm"
CGI,452-02-12031-21563,105.795718,20.99715,60,360,1,2018-08-26T12:12:00-08:00,2023-08-30T18:06:00-08:00,Vietnam,Số 113 phố Vũ Hữu Phường Thanh Xuân Bắc quận Thanh Xuân Hà Nội
CGI,452-02-12031-21562,105.795718,20.99715,60,360,1,2018-08-26T12:12:00-08:00,2023-08-30T18:06:00-08:00,Vietnam,Số 113 phố Vũ Hữu Phường Thanh Xuân Bắc quận Thanh Xuân Hà Nội
CGI,452-02-12031-21561,105.795718,20.99715,60,360,1,2018-08-26T12:12:00-08:00,2023-08-30T18:06:00-08:00,Vietnam,Số 113 phố Vũ Hữu Phường Thanh Xuân Bắc quận Thanh Xuân Hà Nội
CGI,452-02-12031-23133,105.902916,21.046822,60,360,1,2018-08-26T12:12:00-08:00,2023-08-30T18:06:00-08:00,Vietnam,"Khu Nguyệt Quế, đường Mai Phúc, KĐT Vinhomes Hamony 2, phường Phúc Đồng, quận Long Biên, Hà Nội."
CGI,452-02-12031-23132,105.902916,21.046822,60,360,1,2018-08-26T12:12:00-08:00,2023-08-30T18:06:00-08:00,Vietnam,"Khu Nguyệt Quế, đường Mai Phúc, KĐT Vinhomes Hamony 2, phường Phúc Đồng, quận Long Biên, Hà Nội."
CGI,452-02-12031-23131,105.902916,21.046822,60,360,1,2018-08-26T12:12:00-08:00,2023-08-30T18:06:00-08:00,Vietnam,"Khu Nguyệt Quế, đường Mai Phúc, KĐT Vinhomes Hamony 2, phường Phúc Đồng, quận Long Biên, Hà Nội."
CGI,452-02-12031-24651,105.774091,21.008262,60,360,1,2018-08-26T12:12:00-08:00,2023-08-30T18:06:00-08:00,Vietnam,"tòa nhà Bộ Ngoại Giao, đường Lê Quang Đạo, phường Mễ Trì, quận Nam Từ Liêm, Hà Nội"
CGI,452-02-12051-21483,105.907091,21.04067,60,360,1,2018-08-26T12:12:00-08:00,2023-08-30T18:06:00-08:00,Vietnam,"Khu Phong Lan, đường Huỳnh Văn Nghệ, KĐT Vinhomes Hamony 1, phường Sài Đồng, quận Long Biên, Hà Nội"
CGI,452-02-12051-21482,105.907091,21.04067,60,360,1,2018-08-26T12:12:00-08:00,2023-08-30T18:06:00-08:00,Vietnam,"Khu Phong Lan, đường Huỳnh Văn Nghệ, KĐT Vinhomes Hamony 1, phường Sài Đồng, quận Long Biên, Hà Nội"
CGI,452-02-12051-21481,105.907091,21.04067,60,360,1,2018-08-26T12:12:00-08:00,2023-08-30T18:06:00-08:00,Vietnam,"Khu Phong Lan, đường Huỳnh Văn Nghệ, KĐT Vinhomes Hamony 1, phường Sài Đồng, quận Long Biên, Hà Nội"
CGI,452-02-12031-25191,105.784198,20.995799,60,360,1,2018-08-26T12:12:00-08:00,2023-08-30T18:06:00-08:00,Vietnam,"Khu nhà ở CBCV Đài tiếng nói Việt Nam phường Mễ Trì, quận Nam Từ Liêm, TP Hà Nội"
CGI,452-02-12031-25583,105.769258,21.006486,60,360,1,2018-08-26T12:12:00-08:00,2023-08-30T18:06:00-08:00,Vietnam,"Tòa nhà Mỹ Đình Pearl - Phú Đô, Nam Từ Liêm, HN"
CGI,452-02-12031-21222,105.783937,21.033063,60,360,1,2018-08-26T12:12:00-08:00,2023-08-30T18:06:00-08:00,Vietnam,"B7, KTX Thăng Long (ngõ 76 Duy Tân)"
CGI,452-02-12031-23983,105.79214,21.00245,60,360,1,2018-08-26T12:12:00-08:00,2023-08-30T18:06:00-08:00,Vietnam,"Block A-B-D - Văn phòng cho thuê, chung cư cao cấp - Dự án Vinaconex 1 - Phường Trung Hòa, Cầu Giấy (Phía sau tòa nhà Viglacera)"
CGI,452-02-12011-24383,105.788796,21.231983,60,360,1,2018-08-26T12:12:00-08:00,2023-08-30T18:06:00-08:00,Vietnam,Nhà nghỉ Thuý Đông-thôn Bắc Hạ xã Quang Tiến- huyện Sóc Sơn
CGI,452-02-12011-24382,105.788796,21.231983,60,360,1,2018-08-26T12:12:00-08:00,2023-08-30T18:06:00-08:00,Vietnam,Nhà nghỉ Thuý Đông-thôn Bắc Hạ xã Quang Tiến- huyện Sóc Sơn
CGI,452-02-12011-24381,105.788796,21.231983,60,360,1,2018-08-26T12:12:00-08:00,2023-08-30T18:06:00-08:00,Vietnam,Nhà nghỉ Thuý Đông-thôn Bắc Hạ xã Quang Tiến- huyện Sóc Sơn
CGI,452-02-11591-22624,105.76966,21.20052,60,360,1,2018-08-26T12:12:00-08:00,2023-08-30T18:06:00-08:00,Vietnam,Thôn Gia Thượng thị trấn Quang Minh
CGI,452-02-12031-25263,105.793972,20.997025,60,360,1,2018-08-26T12:12:00-08:00,2023-08-30T18:06:00-08:00,Vietnam,"Đường Tố Hữu, Phường Trung Văn, quận Nam Từ Liêm, Hà Nội"
CGI,452-02-12021-22273,105.80875,20.99794,60,360,1,2018-08-26T12:12:00-08:00,2023-08-30T18:06:00-08:00,Vietnam,"Số 51, đường Vũ Trọng Phụng, phường Thanh Xuân Trung, quận Thanh Xuân, thành phố Hà Nội"
CGI,452-02-12031-24323,105.788841,21.0241,60,360,1,2018-08-26T12:12:00-08:00,2023-08-30T18:06:00-08:00,Vietnam,"Tòa nhà Văn phòng PVI Tower, Khu ĐTM Yên Hòa -
Cầu Giấy - Hà Nội"
CGI,452-02-425-25494,105.16802,10.70362,60,360,1,2018-08-26T12:12:00-08:00,2023-08-30T18:06:00-08:00,Vietnam,"Ấp Hòa Lợi, xã Phú Hiệp, huyện Phú Tân, tỉnh An Giang."
CGI,452-02-11661-40533,105.29961,19.66623,60,360,1,2018-08-26T12:12:00-08:00,2023-08-30T18:06:00-08:00,Vietnam,Thôn Lang Lự xã Thanh Lâm huyện Như Xuân
CGI,452-02-11661-40532,105.29961,19.66623,60,360,1,2018-08-26T12:12:00-08:00,2023-08-30T18:06:00-08:00,Vietnam,Thôn Lang Lự xã Thanh Lâm huyện Như Xuân
CGI,452-02-11661-40531,105.29961,19.66623,60,360,1,2018-08-26T12:12:00-08:00,2023-08-30T18:06:00-08:00,Vietnam,Thôn Lang Lự xã Thanh Lâm huyện Như Xuân
CGI,452-02-11661-40513,105.59881,19.62711,60,360,1,2018-08-26T12:12:00-08:00,2023-08-30T18:06:00-08:00,Vietnam,"Thôn Quần Thọ, xã Yên Thọ, huyện Như Thanh"
CGI,452-02-11661-40512,105.59881,19.62711,60,360,1,2018-08-26T12:12:00-08:00,2023-08-30T18:06:00-08:00,Vietnam,"Thôn Quần Thọ, xã Yên Thọ, huyện Như Thanh"
CGI,452-02-11661-40511,105.59881,19.62711,60,360,1,2018-08-26T12:12:00-08:00,2023-08-30T18:06:00-08:00,Vietnam,"Thôn Quần Thọ, xã Yên Thọ, huyện Như Thanh"
CGI,452-02-11661-40523,105.64462,19.65317,60,360,1,2018-08-26T12:12:00-08:00,2023-08-30T18:06:00-08:00,Vietnam,"Thôn Đức Nhuận, xã Phú Nhuận, Huyện Như Thanh"
CGI,452-02-11661-40522,105.64462,19.65317,60,360,1,2018-08-26T12:12:00-08:00,2023-08-30T18:06:00-08:00,Vietnam,"Thôn Đức Nhuận, xã Phú Nhuận, Huyện Như Thanh"
CGI,452-02-11661-40521,105.64462,19.65317,60,360,1,2018-08-26T12:12:00-08:00,2023-08-30T18:06:00-08:00,Vietnam,"Thôn Đức Nhuận, xã Phú Nhuận, Huyện Như Thanh"
CGI,452-02-11661-40503,105.16908,20.29415,60,360,1,2018-08-26T12:12:00-08:00,2023-08-30T18:06:00-08:00,Vietnam,"Thôn Khung, xã Thiết Kế, huyện Bá Thước, tỉnh Thanh Hóa"
CGI,452-02-11661-40502,105.16908,20.29415,60,360,1,2018-08-26T12:12:00-08:00,2023-08-30T18:06:00-08:00,Vietnam,"Thôn Khung, xã Thiết Kế, huyện Bá Thước, tỉnh Thanh Hóa"
CGI,452-02-11661-40501,105.16908,20.29415,60,360,1,2018-08-26T12:12:00-08:00,2023-08-30T18:06:00-08:00,Vietnam,"Thôn Khung, xã Thiết Kế, huyện Bá Thước, tỉnh Thanh Hóa"
CGI,452-02-543-43024,105.724873,18.804465,60,360,1,2018-08-26T12:12:00-08:00,2023-08-30T18:06:00-08:00,Vietnam,"KS Mường Thanh, số 232, đường Đường Bình Minh , phường Nghi Thu, thị xã Cửa Lò, tỉnh Nghệ An"
CGI,452-02-11571-21092,105.939079,20.953476,60,360,1,2018-08-26T12:12:00-08:00,2023-08-30T18:06:00-08:00,Vietnam,"Khu căn hộ  Vịnh Thủy, thuộc Khu đô thị thương mại và du lịch Văn Giang, xã Xuân Quan, Văn Giang, Hưng Yên, Hà Nội"
CGI,452-02-11571-21091,105.939079,20.953476,60,360,1,2018-08-26T12:12:00-08:00,2023-08-30T18:06:00-08:00,Vietnam,"Khu căn hộ  Vịnh Thủy, thuộc Khu đô thị thương mại và du lịch Văn Giang, xã Xuân Quan, Văn Giang, Hưng Yên, Hà Nội"
CGI,452-02-11521-57893,105.1256,18.7663,60,360,1,2018-08-26T12:12:00-08:00,2023-08-30T18:06:00-08:00,Vietnam,"Khu tái định cư Thủy điện bản vẽ, bản Nhạn Cán, xã Thanh Sơn, huyện Thanh Chương, tỉnh Nghệ An"
CGI,452-02-11521-57892,105.1256,18.7663,60,360,1,2018-08-26T12:12:00-08:00,2023-08-30T18:06:00-08:00,Vietnam,"Khu tái định cư Thủy điện bản vẽ, bản Nhạn Cán, xã Thanh Sơn, huyện Thanh Chương, tỉnh Nghệ An"
CGI,452-02-11521-57891,105.1256,18.7663,60,360,1,2018-08-26T12:12:00-08:00,2023-08-30T18:06:00-08:00,Vietnam,"Khu tái định cư Thủy điện bản vẽ, bản Nhạn Cán, xã Thanh Sơn, huyện Thanh Chương, tỉnh Nghệ An"
CGI,452-02-11521-57883,105.395478,18.85622,60,360,1,2018-08-26T12:12:00-08:00,2023-08-30T18:06:00-08:00,Vietnam,"Xóm 10, xã Quang Sơn, huyện Đô Lương, tỉnh Nghệ An"
CGI,452-02-11521-57882,105.395478,18.85622,60,360,1,2018-08-26T12:12:00-08:00,2023-08-30T18:06:00-08:00,Vietnam,"Xóm 10, xã Quang Sơn, huyện Đô Lương, tỉnh Nghệ An"
CGI,452-02-11521-57881,105.395478,18.85622,60,360,1,2018-08-26T12:12:00-08:00,2023-08-30T18:06:00-08:00,Vietnam,"Xóm 10, xã Quang Sơn, huyện Đô Lương, tỉnh Nghệ An"
CGI,452-02-11521-57873,104.86863,19.06562,60,360,1,2018-08-26T12:12:00-08:00,2023-08-30T18:06:00-08:00,Vietnam,"Thôn Thanh Đào, xã Bồng Khê, huyện Con Cuông, tỉnh Nghệ An"
CGI,452-02-11521-57872,104.86863,19.06562,60,360,1,2018-08-26T12:12:00-08:00,2023-08-30T18:06:00-08:00,Vietnam,"Thôn Thanh Đào, xã Bồng Khê, huyện Con Cuông, tỉnh Nghệ An"
CGI,452-02-11521-57871,104.86863,19.06562,60,360,1,2018-08-26T12:12:00-08:00,2023-08-30T18:06:00-08:00,Vietnam,"Thôn Thanh Đào, xã Bồng Khê, huyện Con Cuông, tỉnh Nghệ An"
CGI,452-02-11521-57863,105.22607,18.90486,60,360,1,2018-08-26T12:12:00-08:00,2023-08-30T18:06:00-08:00,Vietnam,"Xóm 11, xã Lĩnh Sơn, huyện Anh Sơn, tỉnh Nghệ An"
CGI,452-02-11521-57862,105.22607,18.90486,60,360,1,2018-08-26T12:12:00-08:00,2023-08-30T18:06:00-08:00,Vietnam,"Xóm 11, xã Lĩnh Sơn, huyện Anh Sơn, tỉnh Nghệ An"
CGI,452-02-11521-57861,105.22607,18.90486,60,360,1,2018-08-26T12:12:00-08:00,2023-08-30T18:06:00-08:00,Vietnam,"Xóm 11, xã Lĩnh Sơn, huyện Anh Sơn, tỉnh Nghệ An"
CGI,452-02-11521-57853,105.318333,19.30945,60,360,1,2018-08-26T12:12:00-08:00,2023-08-30T18:06:00-08:00,Vietnam,"Xóm Mó, xã Nghĩa Xuân, huyện Quỳ Hợp, tỉnh Nghệ An"
CGI,452-02-11521-57852,105.318333,19.30945,60,360,1,2018-08-26T12:12:00-08:00,2023-08-30T18:06:00-08:00,Vietnam,"Xóm Mó, xã Nghĩa Xuân, huyện Quỳ Hợp, tỉnh Nghệ An"
CGI,452-02-11521-57851,105.318333,19.30945,60,360,1,2018-08-26T12:12:00-08:00,2023-08-30T18:06:00-08:00,Vietnam,"Xóm Mó, xã Nghĩa Xuân, huyện Quỳ Hợp, tỉnh Nghệ An"
CGI,452-02-11521-57843,105.124082,19.223501,60,360,1,2018-08-26T12:12:00-08:00,2023-08-30T18:06:00-08:00,Vietnam,"Bản Vực, xã Châu Lý, huyện Quỳ Hợp, tỉnh Nghệ An"
CGI,452-02-11521-57842,105.124082,19.223501,60,360,1,2018-08-26T12:12:00-08:00,2023-08-30T18:06:00-08:00,Vietnam,"Bản Vực, xã Châu Lý, huyện Quỳ Hợp, tỉnh Nghệ An"
CGI,452-02-11521-57841,105.124082,19.223501,60,360,1,2018-08-26T12:12:00-08:00,2023-08-30T18:06:00-08:00,Vietnam,"Bản Vực, xã Châu Lý, huyện Quỳ Hợp, tỉnh Nghệ An"
CGI,452-02-11521-57833,105.1038,19.5769,60,360,1,2018-08-26T12:12:00-08:00,2023-08-30T18:06:00-08:00,Vietnam,"Xóm Thuần Lập, xã Châu Hạnh, huyện Quỳ Châu, tỉnh Nghệ An"
CGI,452-02-11521-57832,105.1038,19.5769,60,360,1,2018-08-26T12:12:00-08:00,2023-08-30T18:06:00-08:00,Vietnam,"Xóm Thuần Lập, xã Châu Hạnh, huyện Quỳ Châu, tỉnh Nghệ An"
CGI,452-02-11521-57831,105.1038,19.5769,60,360,1,2018-08-26T12:12:00-08:00,2023-08-30T18:06:00-08:00,Vietnam,"Xóm Thuần Lập, xã Châu Hạnh, huyện Quỳ Châu, tỉnh Nghệ An"
CGI,452-02-11521-57823,105.46812,19.2511,60,360,1,2018-08-26T12:12:00-08:00,2023-08-30T18:06:00-08:00,Vietnam,"Xóm Nam Hòa, xã Nghĩa Long, huyện Nghĩa Đàn, tỉnh Nghệ An"
CGI,452-02-11521-57822,105.46812,19.2511,60,360,1,2018-08-26T12:12:00-08:00,2023-08-30T18:06:00-08:00,Vietnam,"Xóm Nam Hòa, xã Nghĩa Long, huyện Nghĩa Đàn, tỉnh Nghệ An"
CGI,452-02-11521-57821,105.46812,19.2511,60,360,1,2018-08-26T12:12:00-08:00,2023-08-30T18:06:00-08:00,Vietnam,"Xóm Nam Hòa, xã Nghĩa Long, huyện Nghĩa Đàn, tỉnh Nghệ An"
CGI,452-02-11521-57813,105.3372,19.3601,60,360,1,2018-08-26T12:12:00-08:00,2023-08-30T18:06:00-08:00,Vietnam,"Xóm 2, xã Nghĩa Hưng, huyện Nghĩa Đàn, tỉnh Nghệ An"
CGI,452-02-11521-57812,105.3372,19.3601,60,360,1,2018-08-26T12:12:00-08:00,2023-08-30T18:06:00-08:00,Vietnam,"Xóm 2, xã Nghĩa Hưng, huyện Nghĩa Đàn, tỉnh Nghệ An"
CGI,452-02-11521-57811,105.3372,19.3601,60,360,1,2018-08-26T12:12:00-08:00,2023-08-30T18:06:00-08:00,Vietnam,"Xóm 2, xã Nghĩa Hưng, huyện Nghĩa Đàn, tỉnh Nghệ An"
CGI,452-02-11521-57743,105.38682,18.67691,60,360,1,2018-08-26T12:12:00-08:00,2023-08-30T18:06:00-08:00,Vietnam,"Đồi Động Kè, xã Thanh Tùng, huyện Thanh Chương, tỉnh Nghệ An"
CGI,452-02-11521-57742,105.38682,18.67691,60,360,1,2018-08-26T12:12:00-08:00,2023-08-30T18:06:00-08:00,Vietnam,"Đồi Động Kè, xã Thanh Tùng, huyện Thanh Chương, tỉnh Nghệ An"
CGI,452-02-11521-57741,105.38682,18.67691,60,360,1,2018-08-26T12:12:00-08:00,2023-08-30T18:06:00-08:00,Vietnam,"Đồi Động Kè, xã Thanh Tùng, huyện Thanh Chương, tỉnh Nghệ An"
CGI,452-02-11521-57733,104.94072,19.5902,60,360,1,2018-08-26T12:12:00-08:00,2023-08-30T18:06:00-08:00,Vietnam,"Xóm 3, xã Quế Sơn, huyện Quế Phong, tỉnh Nghệ An"
CGI,452-02-11521-57732,104.94072,19.5902,60,360,1,2018-08-26T12:12:00-08:00,2023-08-30T18:06:00-08:00,Vietnam,"Xóm 3, xã Quế Sơn, huyện Quế Phong, tỉnh Nghệ An"
CGI,452-02-11521-57731,104.94072,19.5902,60,360,1,2018-08-26T12:12:00-08:00,2023-08-30T18:06:00-08:00,Vietnam,"Xóm 3, xã Quế Sơn, huyện Quế Phong, tỉnh Nghệ An"
CGI,452-02-11521-57723,105.083288,19.059217,60,360,1,2018-08-26T12:12:00-08:00,2023-08-30T18:06:00-08:00,Vietnam,"Xóm Hòa Sơn, xã Phú Sơn, huyện Tân Kỳ, tỉnh Nghệ An"
CGI,452-02-11521-57722,105.083288,19.059217,60,360,1,2018-08-26T12:12:00-08:00,2023-08-30T18:06:00-08:00,Vietnam,"Xóm Hòa Sơn, xã Phú Sơn, huyện Tân Kỳ, tỉnh Nghệ An"
CGI,452-02-11521-57721,105.083288,19.059217,60,360,1,2018-08-26T12:12:00-08:00,2023-08-30T18:06:00-08:00,Vietnam,"Xóm Hòa Sơn, xã Phú Sơn, huyện Tân Kỳ, tỉnh Nghệ An"
CGI,452-02-11521-57713,104.704167,19.140556,60,360,1,2018-08-26T12:12:00-08:00,2023-08-30T18:06:00-08:00,Vietnam,"Xóm bãi Xa, xã Tam Quang, huyện Tương Dương, tỉnh Nghệ An"
CGI,452-02-11521-57712,104.704167,19.140556,60,360,1,2018-08-26T12:12:00-08:00,2023-08-30T18:06:00-08:00,Vietnam,"Xóm bãi Xa, xã Tam Quang, huyện Tương Dương, tỉnh Nghệ An"
CGI,452-02-11521-57711,104.704167,19.140556,60,360,1,2018-08-26T12:12:00-08:00,2023-08-30T18:06:00-08:00,Vietnam,"Xóm bãi Xa, xã Tam Quang, huyện Tương Dương, tỉnh Nghệ An"
CGI,452-02-342-56397,106.633873,17.479639,60,360,1,2018-08-26T12:12:00-08:00,2023-08-30T18:06:00-08:00,Vietnam,"Khu nhà bếp, Sun-Spa-Resort, Mỹ Cảnh, Bảo Ninh, Đồng Hới, Quảng Bình"
CGI,452-02-342-56388,106.6334,17.229179,60,360,1,2018-08-26T12:12:00-08:00,2023-08-30T18:06:00-08:00,Vietnam,"Thôn Khe Bùi, Thị Trấn NT Lệ Ninh, Lệ Thủy"
CGI,452-02-342-56387,106.6334,17.229179,60,360,1,2018-08-26T12:12:00-08:00,2023-08-30T18:06:00-08:00,Vietnam,"Thôn Khe Bùi, Thị Trấn NT Lệ Ninh, Lệ Thủy"
CGI,452-02-3571-15991,108.20988,16.05925,60,360,1,2018-08-26T12:12:00-08:00,2023-08-30T18:06:00-08:00,Vietnam,44-46 Đào Duy Anh
CGI,452-02-3581-14031,108.197787,16.01868,60,360,1,2018-08-26T12:12:00-08:00,2023-08-30T18:06:00-08:00,Vietnam,80 Nguyễn Phước tần
CGI,452-02-11611-23873,105.784382,20.929997,60,360,1,2018-08-26T12:12:00-08:00,2023-08-30T18:06:00-08:00,Vietnam,"Tòa nhà B2.1, HH03-D-E-F-IBS-TOI_HNI - Khu đô thị Thanh Hà – Cienco5, xã Cự Khê, huyện Thanh Oai, thành phố Hà Nội"
CGI,452-02-11611-23872,105.784382,20.929997,60,360,1,2018-08-26T12:12:00-08:00,2023-08-30T18:06:00-08:00,Vietnam,"Tòa nhà B2.1, HH03-D-E-F-IBS-TOI_HNI - Khu đô thị Thanh Hà – Cienco5, xã Cự Khê, huyện Thanh Oai, thành phố Hà Nội"
CGI,452-02-11611-23871,105.784382,20.929997,60,360,1,2018-08-26T12:12:00-08:00,2023-08-30T18:06:00-08:00,Vietnam,"Tòa nhà B2.1, HH03-D-E-F-IBS-TOI_HNI - Khu đô thị Thanh Hà – Cienco5, xã Cự Khê, huyện Thanh Oai, thành phố Hà Nội"
CGI,452-02-11611-23813,105.749361,20.952102,60,360,1,2018-08-26T12:12:00-08:00,2023-08-30T18:06:00-08:00,Vietnam,"Lô 416, khu dịch vụ A Do Lộ, phường Yên Nghĩa, quận Hà Đông"
CGI,452-02-11611-23812,105.749361,20.952102,60,360,1,2018-08-26T12:12:00-08:00,2023-08-30T18:06:00-08:00,Vietnam,"Lô 416, khu dịch vụ A Do Lộ, phường Yên Nghĩa, quận Hà Đông"
CGI,452-02-11611-23811,105.749361,20.952102,60,360,1,2018-08-26T12:12:00-08:00,2023-08-30T18:06:00-08:00,Vietnam,"Lô 416, khu dịch vụ A Do Lộ, phường Yên Nghĩa, quận Hà Đông"
CGI,452-02-11571-28012,105.839946,20.985379,60,360,1,2018-08-26T12:12:00-08:00,2023-08-30T18:06:00-08:00,Vietnam,"360 Giải Phóng, P. Phương Liệt, Q. Thanh Xuân, Hà Nội"
CGI,452-02-11571-28011,105.839946,20.985379,60,360,1,2018-08-26T12:12:00-08:00,2023-08-30T18:06:00-08:00,Vietnam,"360 Giải Phóng, P. Phương Liệt, Q. Thanh Xuân, Hà Nội"
CGI,452-02-11541-21283,105.738196,20.986951,60,360,1,2018-08-26T12:12:00-08:00,2023-08-30T18:06:00-08:00,Vietnam,"Khu biệt thự liền kề Geleximco, đường Lê Trọng Tấn, phường Dương Nội, quận Hà Đông"
CGI,452-02-11541-21282,105.738196,20.986951,60,360,1,2018-08-26T12:12:00-08:00,2023-08-30T18:06:00-08:00,Vietnam,"Khu biệt thự liền kề Geleximco, đường Lê Trọng Tấn, phường Dương Nội, quận Hà Đông"
CGI,452-02-11541-21281,105.738196,20.986951,60,360,1,2018-08-26T12:12:00-08:00,2023-08-30T18:06:00-08:00,Vietnam,"Khu biệt thự liền kề Geleximco, đường Lê Trọng Tấn, phường Dương Nội, quận Hà Đông"
CGI,452-02-11541-28513,105.83831,21.03306,60,360,1,2018-08-26T12:12:00-08:00,2023-08-30T18:06:00-08:00,Vietnam,"Số 37, Đường Điện Biên Phủ, Ngã tư Hoàng Diệu, Quận Ba Đình"
CGI,452-02-11541-28512,105.83831,21.03306,60,360,1,2018-08-26T12:12:00-08:00,2023-08-30T18:06:00-08:00,Vietnam,"Số 37, Đường Điện Biên Phủ, Ngã tư Hoàng Diệu, Quận Ba Đình"
CGI,452-02-11541-28511,105.83831,21.03306,60,360,1,2018-08-26T12:12:00-08:00,2023-08-30T18:06:00-08:00,Vietnam,"Số 37, Đường Điện Biên Phủ, Ngã tư Hoàng Diệu, Quận Ba Đình"
CGI,452-02-11581-21301,105.911587,21.063712,60,360,1,2018-08-26T12:12:00-08:00,2023-08-30T18:06:00-08:00,Vietnam,"Ô đất CT15 - KĐT mới Việt Hưng, Q. Long Biên, TP. Hà Nội"
CGI,452-02-11541-21292,105.79442,21.003995,60,360,1,2018-08-26T12:12:00-08:00,2023-08-30T18:06:00-08:00,Vietnam,"Số 1, Trần Duy Hưng, P. Trung Hòa, Q. Cầu Giấy. Hà Nội"
CGI,452-02-11541-21291,105.79442,21.003995,60,360,1,2018-08-26T12:12:00-08:00,2023-08-30T18:06:00-08:00,Vietnam,"Số 1, Trần Duy Hưng, P. Trung Hòa, Q. Cầu Giấy. Hà Nội"
CGI,452-02-353-62993,108.32575,15.62524,60,360,1,2018-08-26T12:12:00-08:00,2023-08-30T18:06:00-08:00,Vietnam,"Thôn Phước Hà, xã Bình Phú, huyện Thăng Bình"
CGI,452-02-353-62992,108.32575,15.62524,60,360,1,2018-08-26T12:12:00-08:00,2023-08-30T18:06:00-08:00,Vietnam,"Thôn Phước Hà, xã Bình Phú, huyện Thăng Bình"
CGI,452-02-353-62991,108.32575,15.62524,60,360,1,2018-08-26T12:12:00-08:00,2023-08-30T18:06:00-08:00,Vietnam,"Thôn Phước Hà, xã Bình Phú, huyện Thăng Bình"
CGI,452-02-12061-22603,105.85172,20.992665,60,360,1,2018-08-26T12:12:00-08:00,2023-08-30T18:06:00-08:00,Vietnam,"Số 98 phố Hoàng Mai, phường Hoàng Văn Thụ, quận Hoàng Mai"
CGI,452-02-12061-22602,105.85172,20.992665,60,360,1,2018-08-26T12:12:00-08:00,2023-08-30T18:06:00-08:00,Vietnam,"Số 98 phố Hoàng Mai, phường Hoàng Văn Thụ, quận Hoàng Mai"
CGI,452-02-12061-22601,105.85172,20.992665,60,360,1,2018-08-26T12:12:00-08:00,2023-08-30T18:06:00-08:00,Vietnam,"Số 98 phố Hoàng Mai, phường Hoàng Văn Thụ, quận Hoàng Mai"
CGI,452-02-302-40143,109.228589,13.338254,60,360,1,2018-08-26T12:12:00-08:00,2023-08-30T18:06:00-08:00,Vietnam,"Thôn Hội Phú, xã An Ninh Tây"
CGI,452-02-302-40142,109.228589,13.338254,60,360,1,2018-08-26T12:12:00-08:00,2023-08-30T18:06:00-08:00,Vietnam,"Thôn Hội Phú, xã An Ninh Tây"
CGI,452-02-302-40141,109.228589,13.338254,60,360,1,2018-08-26T12:12:00-08:00,2023-08-30T18:06:00-08:00,Vietnam,"Thôn Hội Phú, xã An Ninh Tây"
CGI,452-02-11591-23613,105.775305,21.189865,60,360,1,2018-08-26T12:12:00-08:00,2023-08-30T18:06:00-08:00,Vietnam,"Công ty Lê Việt, KCN Quang Minh, Thị trấn Quang Minh, huyện Mê Linh"
CGI,452-02-11591-23612,105.775305,21.189865,60,360,1,2018-08-26T12:12:00-08:00,2023-08-30T18:06:00-08:00,Vietnam,"Công ty Lê Việt, KCN Quang Minh, Thị trấn Quang Minh, huyện Mê Linh"
CGI,452-02-11591-23611,105.775305,21.189865,60,360,1,2018-08-26T12:12:00-08:00,2023-08-30T18:06:00-08:00,Vietnam,"Công ty Lê Việt, KCN Quang Minh, Thị trấn Quang Minh, huyện Mê Linh"
CGI,452-02-406-6931,105.51544,10.32527,60,360,1,2018-08-26T12:12:00-08:00,2023-08-30T18:06:00-08:00,Vietnam,"Tret-189 quốc lộ 54 - ấp An Hòa, xã Định An, huyện Lấp Vò, tỉnh Đồng Tháp."
CGI,452-02-408-8094,106.01647,10.36351,60,360,1,2018-08-26T12:12:00-08:00,2023-08-30T18:06:00-08:00,Vietnam,"Ấp An Thạnh, xã Đông Hòa Hiệp, huyện Cái Bè, tỉnh Tiền Giang."
CGI,452-02-11571-21191,105.839279,20.958642,60,360,1,2018-08-26T12:12:00-08:00,2023-08-30T18:06:00-08:00,Vietnam,"Ngõ 54 đường Ngọc Hồi, Hoàng Liệt, Hoàng Mai, Hà Nội"
CGI,452-02-633-33319,106.22536,20.18159,60,360,1,2018-08-26T12:12:00-08:00,2023-08-30T18:06:00-08:00,Vietnam,"Xóm 11, Xã Trực Thái, Huyện Trực Ninh, Tỉnh Nam Định"
CGI,452-02-633-33318,106.22536,20.18159,60,360,1,2018-08-26T12:12:00-08:00,2023-08-30T18:06:00-08:00,Vietnam,"Xóm 11, Xã Trực Thái, Huyện Trực Ninh, Tỉnh Nam Định"
CGI,452-02-633-33317,106.22536,20.18159,60,360,1,2018-08-26T12:12:00-08:00,2023-08-30T18:06:00-08:00,Vietnam,"Xóm 11, Xã Trực Thái, Huyện Trực Ninh, Tỉnh Nam Định"
CGI,452-02-633-33316,106.219121,20.205701,60,360,1,2018-08-26T12:12:00-08:00,2023-08-30T18:06:00-08:00,Vietnam,"Xóm 3, Xã Trực Cường, Huyện Trực Ninh, Tỉnh Nam Định"
CGI,452-02-633-33315,106.219121,20.205701,60,360,1,2018-08-26T12:12:00-08:00,2023-08-30T18:06:00-08:00,Vietnam,"Xóm 3, Xã Trực Cường, Huyện Trực Ninh, Tỉnh Nam Định"
CGI,452-02-633-33314,106.219121,20.205701,60,360,1,2018-08-26T12:12:00-08:00,2023-08-30T18:06:00-08:00,Vietnam,"Xóm 3, Xã Trực Cường, Huyện Trực Ninh, Tỉnh Nam Định"
CGI,452-02-537-37233,105.61314,20.06694,60,360,1,2018-08-26T12:12:00-08:00,2023-08-30T18:06:00-08:00,Vietnam,"Phố mới Vĩnh Tiến, Vĩnh Lộc, Thanh Hóa"
CGI,452-02-537-37232,105.61314,20.06694,60,360,1,2018-08-26T12:12:00-08:00,2023-08-30T18:06:00-08:00,Vietnam,"Phố mới Vĩnh Tiến, Vĩnh Lộc, Thanh Hóa"
CGI,452-02-537-37231,105.61314,20.06694,60,360,1,2018-08-26T12:12:00-08:00,2023-08-30T18:06:00-08:00,Vietnam,"Phố mới Vĩnh Tiến, Vĩnh Lộc, Thanh Hóa"
CGI,452-02-817-17683,106.37896,21.30039,60,360,1,2018-08-26T12:12:00-08:00,2023-08-30T18:06:00-08:00,Vietnam,"Tại nhà xí nghiệp  may Lục Nam, thị trấn Đồi Ngô, huyện Lục Nam, tỉnh Bắc Giang"
CGI,452-02-11605-28223,105.65088,22.8439,60,360,1,2018-08-26T12:12:00-08:00,2023-08-30T18:06:00-08:00,Vietnam,"Xóm Tắc Kè, xã Kim Cúc, huyện Bảo Lạc, tỉnh Cao Bằng"
CGI,452-02-11605-28222,105.65088,22.8439,60,360,1,2018-08-26T12:12:00-08:00,2023-08-30T18:06:00-08:00,Vietnam,"Xóm Tắc Kè, xã Kim Cúc, huyện Bảo Lạc, tỉnh Cao Bằng"
CGI,452-02-11605-28221,105.65088,22.8439,60,360,1,2018-08-26T12:12:00-08:00,2023-08-30T18:06:00-08:00,Vietnam,"Xóm Tắc Kè, xã Kim Cúc, huyện Bảo Lạc, tỉnh Cao Bằng"
CGI,452-02-12012-29703,105.91753,22.68635,60,360,1,2018-08-26T12:12:00-08:00,2023-08-30T18:06:00-08:00,Vietnam,"Xóm Khao Khíp, Xã Triệu Nguyên, huyện Nguyên Bình, tỉnh Cao Bằng"
CGI,452-02-12012-29702,105.91753,22.68635,60,360,1,2018-08-26T12:12:00-08:00,2023-08-30T18:06:00-08:00,Vietnam,"Xóm Khao Khíp, Xã Triệu Nguyên, huyện Nguyên Bình, tỉnh Cao Bằng"
CGI,452-02-12012-29701,105.91753,22.68635,60,360,1,2018-08-26T12:12:00-08:00,2023-08-30T18:06:00-08:00,Vietnam,"Xóm Khao Khíp, Xã Triệu Nguyên, huyện Nguyên Bình, tỉnh Cao Bằng"
CGI,452-02-354-62731,109.194362,12.244251,60,360,1,2018-08-26T12:12:00-08:00,2023-08-30T18:06:00-08:00,Vietnam,"18 Trần Hưng Đạo, phường Lộc Thọ, thành phố Nha Trang, tỉnh Khánh Hòa"
CGI,452-02-705-5153,107.09601,10.82901,60,360,1,2018-08-26T12:12:00-08:00,2023-08-30T18:06:00-08:00,Vietnam,"ấp 3, xã Sông Nhạn, huyện Cẩm Mỹ, tỉnh Đồng Nai"
CGI,452-02-254-34714,106.73476,10.73431,60,360,1,2018-08-26T12:12:00-08:00,2023-08-30T18:06:00-08:00,Vietnam,"Số 803/97D, khu phố 2, phường Phú Thuận, quận 7, thành phố Hồ Chí Minh."
CGI,452-02-254-34715,106.73476,10.73431,60,360,1,2018-08-26T12:12:00-08:00,2023-08-30T18:06:00-08:00,Vietnam,"Số 803/97D, khu phố 2, phường Phú Thuận, quận 7, thành phố Hồ Chí Minh."
CGI,452-02-251-51942,106.708959,10.726592,60,360,1,2018-08-26T12:12:00-08:00,2023-08-30T18:06:00-08:00,Vietnam,"Tòa nhà Mỹ Khánh IV đường Nguyễn Đức Cảnh, Hà Huy Tập, P. Tân Phong, Q7"
CGI,452-02-251-51943,106.708959,10.726592,60,360,1,2018-08-26T12:12:00-08:00,2023-08-30T18:06:00-08:00,Vietnam,"Tòa nhà Mỹ Khánh IV đường Nguyễn Đức Cảnh, Hà Huy Tập, P. Tân Phong, Q7"
CGI,452-02-251-51941,106.708959,10.726592,60,360,1,2018-08-26T12:12:00-08:00,2023-08-30T18:06:00-08:00,Vietnam,"Tòa nhà Mỹ Khánh IV đường Nguyễn Đức Cảnh, Hà Huy Tập, P. Tân Phong, Q7"
CGI,452-02-12051-23241,105.857639,21.014489,60,360,1,2018-08-26T12:12:00-08:00,2023-08-30T18:06:00-08:00,Vietnam,"Số 22, phố Nguyễn Công Trứ, phường Phạm Đình Hổ, quận Hai Bà Trưng, thành phố Hà Nội"
CGI,452-02-12031-25193,105.784198,20.995799,60,360,1,2018-08-26T12:12:00-08:00,2023-08-30T18:06:00-08:00,Vietnam,"Khu nhà ở CBCV Đài tiếng nói Việt Nam phường Mễ Trì, quận Nam Từ Liêm, TP Hà Nội"
CGI,452-02-12031-25192,105.784198,20.995799,60,360,1,2018-08-26T12:12:00-08:00,2023-08-30T18:06:00-08:00,Vietnam,"Khu nhà ở CBCV Đài tiếng nói Việt Nam phường Mễ Trì, quận Nam Từ Liêm, TP Hà Nội"
CGI,452-02-602-2163,105.33444,21.37758,60,360,1,2018-08-26T12:12:00-08:00,2023-08-30T18:06:00-08:00,Vietnam,Khu 4 xã Phù Ninh huyện Phù Ninh 
CGI,452-02-602-2162,105.33444,21.37758,60,360,1,2018-08-26T12:12:00-08:00,2023-08-30T18:06:00-08:00,Vietnam,Khu 4 xã Phù Ninh huyện Phù Ninh 
CGI,452-02-602-2161,105.33444,21.37758,60,360,1,2018-08-26T12:12:00-08:00,2023-08-30T18:06:00-08:00,Vietnam,Khu 4 xã Phù Ninh huyện Phù Ninh 
CGI,452-02-634-34503,106.115381,20.485821,60,360,1,2018-08-26T12:12:00-08:00,2023-08-30T18:06:00-08:00,Vietnam,Xóm 13 - Mỹ Hà - Mỹ Lộc
CGI,452-02-634-34502,106.115381,20.485821,60,360,1,2018-08-26T12:12:00-08:00,2023-08-30T18:06:00-08:00,Vietnam,Xóm 13 - Mỹ Hà - Mỹ Lộc
CGI,452-02-634-34501,106.115381,20.485821,60,360,1,2018-08-26T12:12:00-08:00,2023-08-30T18:06:00-08:00,Vietnam,Xóm 13 - Mỹ Hà - Mỹ Lộc
CGI,452-02-602-2113,105.35194,21.35947,60,360,1,2018-08-26T12:12:00-08:00,2023-08-30T18:06:00-08:00,Vietnam,Quân khu 2 thành phố Việt Trì
CGI,452-02-602-2112,105.35194,21.35947,60,360,1,2018-08-26T12:12:00-08:00,2023-08-30T18:06:00-08:00,Vietnam,Quân khu 2 thành phố Việt Trì
CGI,452-02-602-2111,105.35194,21.35947,60,360,1,2018-08-26T12:12:00-08:00,2023-08-30T18:06:00-08:00,Vietnam,Quân khu 2 thành phố Việt Trì
CGI,452-02-11611-23863,105.793799,21.051487,60,360,1,2018-08-26T12:12:00-08:00,2023-08-30T18:06:00-08:00,Vietnam,"Khu đô thị Thanh Hà – Cienco5, xã Cự Khê, huyện Thanh Oai, thành phố Hà Nội Thanh Oai"
CGI,452-02-11611-23862,105.793799,21.051487,60,360,1,2018-08-26T12:12:00-08:00,2023-08-30T18:06:00-08:00,Vietnam,"Khu đô thị Thanh Hà – Cienco5, xã Cự Khê, huyện Thanh Oai, thành phố Hà Nội Thanh Oai"
CGI,452-02-11611-23861,105.793799,21.051487,60,360,1,2018-08-26T12:12:00-08:00,2023-08-30T18:06:00-08:00,Vietnam,"Khu đô thị Thanh Hà – Cienco5, xã Cự Khê, huyện Thanh Oai, thành phố Hà Nội Thanh Oai"
CGI,452-02-3571-62142,108.31193,16.11751,60,360,1,2018-08-26T12:12:00-08:00,2023-08-30T18:06:00-08:00,Vietnam,KV cổng vào ra Intercontinental Resort
CGI,452-02-3571-62143,108.31193,16.11751,60,360,1,2018-08-26T12:12:00-08:00,2023-08-30T18:06:00-08:00,Vietnam,KV cổng vào ra Intercontinental Resort
CGI,452-02-3581-63261,108.02056,16.13075,60,360,1,2018-08-26T12:12:00-08:00,2023-08-30T18:06:00-08:00,Vietnam,Trạm Phòng không Hòa Bắc
CGI,452-02-3581-63262,108.02056,16.13075,60,360,1,2018-08-26T12:12:00-08:00,2023-08-30T18:06:00-08:00,Vietnam,Trạm Phòng không Hòa Bắc
CGI,452-02-3571-15912,108.280067,16.098309,60,360,1,2018-08-26T12:12:00-08:00,2023-08-30T18:06:00-08:00,Vietnam,Cột VNPT đối diện Chừa Linh Ứng
CGI,452-02-3571-15911,108.280067,16.098309,60,360,1,2018-08-26T12:12:00-08:00,2023-08-30T18:06:00-08:00,Vietnam,Cột VNPT đối diện Chừa Linh Ứng
CGI,452-02-3571-15891,108.245987,16.058028,60,360,1,2018-08-26T12:12:00-08:00,2023-08-30T18:06:00-08:00,Vietnam,258 Võ Nguyên Giáp
CGI,452-02-3571-15871,108.229609,16.071155,60,360,1,2018-08-26T12:12:00-08:00,2023-08-30T18:06:00-08:00,Vietnam,đường Trần Hưng Đạo
CGI,452-02-3571-15901,108.224487,16.066602,60,360,1,2018-08-26T12:12:00-08:00,2023-08-30T18:06:00-08:00,Vietnam,162 Bạch Đằng
CGI,452-02-11511-21073,105.782222,21.018831,60,360,1,2018-08-26T12:12:00-08:00,2023-08-30T18:06:00-08:00,Vietnam,"Đường Phạm Hùng, P Dịch Vọng Hậu, Q Cầu Giấy, HN."
CGI,452-02-11511-21072,105.782222,21.018831,60,360,1,2018-08-26T12:12:00-08:00,2023-08-30T18:06:00-08:00,Vietnam,"Đường Phạm Hùng, P Dịch Vọng Hậu, Q Cầu Giấy, HN."
CGI,452-02-11511-21071,105.782222,21.018831,60,360,1,2018-08-26T12:12:00-08:00,2023-08-30T18:06:00-08:00,Vietnam,"Đường Phạm Hùng, P Dịch Vọng Hậu, Q Cầu Giấy, HN."
CGI,452-02-11541-21042,105.791534,20.951098,60,360,1,2018-08-26T12:12:00-08:00,2023-08-30T18:06:00-08:00,Vietnam,"Tòa CT2 A,B, CT1 - Mipec Kiến Hưng, khu đô thị Kiến Hưng Phường Kiến Hưng, Hà Đông, Hà Nội"
CGI,452-02-11541-21041,105.791534,20.951098,60,360,1,2018-08-26T12:12:00-08:00,2023-08-30T18:06:00-08:00,Vietnam,"Tòa CT2 A,B, CT1 - Mipec Kiến Hưng, khu đô thị Kiến Hưng Phường Kiến Hưng, Hà Đông, Hà Nội"
CGI,452-02-11541-21031,105.784465,20.980294,60,360,1,2018-08-26T12:12:00-08:00,2023-08-30T18:06:00-08:00,Vietnam,"Khu đô thị Mỗ Lao, P. Mỗ Lao, Hà Đông, Hà Nội"
CGI,452-02-638-38023,106.50326,20.49126,60,360,1,2018-08-26T12:12:00-08:00,2023-08-30T18:06:00-08:00,Vietnam,"Trạm y tế xã Thái Thuần, Thôn Thanh Linh, xã Thái Thuần, huyện Thái Thụy, tỉnh Thái Bình"
CGI,452-02-638-38022,106.50326,20.49126,60,360,1,2018-08-26T12:12:00-08:00,2023-08-30T18:06:00-08:00,Vietnam,"Trạm y tế xã Thái Thuần, Thôn Thanh Linh, xã Thái Thuần, huyện Thái Thụy, tỉnh Thái Bình"
CGI,452-02-638-38021,106.50326,20.49126,60,360,1,2018-08-26T12:12:00-08:00,2023-08-30T18:06:00-08:00,Vietnam,"Trạm y tế xã Thái Thuần, Thôn Thanh Linh, xã Thái Thuần, huyện Thái Thụy, tỉnh Thái Bình"
CGI,452-02-639-39323,106.4792,20.34569,60,360,1,2018-08-26T12:12:00-08:00,2023-08-30T18:06:00-08:00,Vietnam,"UBND Bắc Hải, Tiền Hải, Thái Bình"
CGI,452-02-639-39322,106.4792,20.34569,60,360,1,2018-08-26T12:12:00-08:00,2023-08-30T18:06:00-08:00,Vietnam,"UBND Bắc Hải, Tiền Hải, Thái Bình"
CGI,452-02-639-39321,106.4792,20.34569,60,360,1,2018-08-26T12:12:00-08:00,2023-08-30T18:06:00-08:00,Vietnam,"UBND Bắc Hải, Tiền Hải, Thái Bình"
CGI,452-02-639-39313,106.5577,20.32353,60,360,1,2018-08-26T12:12:00-08:00,2023-08-30T18:06:00-08:00,Vietnam,"Điểm BĐVH Xã nam Hưng, Thôn Lộc Trung, Xã Nam Hưng, Huyện Tiền Hả"
CGI,452-02-639-39312,106.5577,20.32353,60,360,1,2018-08-26T12:12:00-08:00,2023-08-30T18:06:00-08:00,Vietnam,"Điểm BĐVH Xã nam Hưng, Thôn Lộc Trung, Xã Nam Hưng, Huyện Tiền Hả"
CGI,452-02-639-39311,106.5577,20.32353,60,360,1,2018-08-26T12:12:00-08:00,2023-08-30T18:06:00-08:00,Vietnam,"Điểm BĐVH Xã nam Hưng, Thôn Lộc Trung, Xã Nam Hưng, Huyện Tiền Hả"
CGI,452-02-639-39876,106.46099,20.38802,60,360,1,2018-08-26T12:12:00-08:00,2023-08-30T18:06:00-08:00,Vietnam,"Đài Rada xã An Bồi, Kiến Xương, Thái Bình"
CGI,452-02-639-39875,106.46099,20.38802,60,360,1,2018-08-26T12:12:00-08:00,2023-08-30T18:06:00-08:00,Vietnam,"Đài Rada xã An Bồi, Kiến Xương, Thái Bình"
CGI,452-02-639-39874,106.46099,20.38802,60,360,1,2018-08-26T12:12:00-08:00,2023-08-30T18:06:00-08:00,Vietnam,"Đài Rada xã An Bồi, Kiến Xương, Thái Bình"
CGI,452-02-4272-27274,104.96961,8.71581,60,360,1,2018-08-26T12:12:00-08:00,2023-08-30T18:06:00-08:00,Vietnam,"Ấp Xóm Mới, xã Viên An Đông, huyện Ngọc Hiển tỉnh Cà Mau"
CGI,452-02-4272-27504,105.04268,8.69557,60,360,1,2018-08-26T12:12:00-08:00,2023-08-30T18:06:00-08:00,Vietnam,NT 414 - ấp Đường Kéo - xã Tân Ân Tây - huyện Ngọc Hiển - tỉnh Cà Mau
CGI,452-02-4272-27817,105.06847,8.72787,60,360,1,2018-08-26T12:12:00-08:00,2023-08-30T18:06:00-08:00,Vietnam,"nha dan,Ấp Cải Lá, Xã Tam Giang Tây, H.Ngọc Hiển, Cà Mau"
CGI,452-02-526-26413,106.052692,20.194278,60,360,1,2018-08-26T12:12:00-08:00,2023-08-30T18:06:00-08:00,Vietnam,Xóm 1 Vân Tiến xã Khánh Vân huyện Yên Khánh
CGI,452-02-526-26412,106.052692,20.194278,60,360,1,2018-08-26T12:12:00-08:00,2023-08-30T18:06:00-08:00,Vietnam,Xóm 1 Vân Tiến xã Khánh Vân huyện Yên Khánh
CGI,452-02-526-26411,106.052692,20.194278,60,360,1,2018-08-26T12:12:00-08:00,2023-08-30T18:06:00-08:00,Vietnam,Xóm 1 Vân Tiến xã Khánh Vân huyện Yên Khánh
CGI,452-02-317-17609,109.22113,13.77297,60,360,1,2018-08-26T12:12:00-08:00,2023-08-30T18:06:00-08:00,Vietnam,16 Lê Duẫn- TP Quy Nhơn
CGI,452-02-317-17608,109.22113,13.77297,60,360,1,2018-08-26T12:12:00-08:00,2023-08-30T18:06:00-08:00,Vietnam,16 Lê Duẫn- TP Quy Nhơn
CGI,452-02-317-17607,109.22113,13.77297,60,360,1,2018-08-26T12:12:00-08:00,2023-08-30T18:06:00-08:00,Vietnam,16 Lê Duẫn- TP Quy Nhơn
CGI,452-02-12031-25542,105.787774,20.990654,60,360,1,2018-08-26T12:12:00-08:00,2023-08-30T18:06:00-08:00,Vietnam,"Toà nhà Intracom Trung Văn, Phường Trung Văn, Quận Nam Từ Liêm"
CGI,452-02-12051-22523,105.837261,21.001124,60,360,1,2018-08-26T12:12:00-08:00,2023-08-30T18:06:00-08:00,Vietnam,"Ngõ 102 Trường Chinh Hà Nội, P. Phương Mai, Q. Đống Đa, Hà Nội"
CGI,452-02-12061-24023,105.77575,20.96354,60,360,1,2018-08-26T12:12:00-08:00,2023-08-30T18:06:00-08:00,Vietnam,Tòa nhà HuynDai Hill Hà Đông HN
CGI,452-02-330-30054,108.96761,14.85269,60,360,1,2018-08-26T12:12:00-08:00,2023-08-30T18:06:00-08:00,Vietnam,"BĐVHX  Phổ Quang, Thôn Phần Thất, Xã Phổ Quang,  Huyện Đức Phổ"
CGI,452-02-437-63374,106.39642,10.89484,60,360,1,2018-08-26T12:12:00-08:00,2023-08-30T18:06:00-08:00,Vietnam,"Ô 7, Khu B, TT Hậu Nghĩa huyện Đức Hòa"
CGI,452-02-4292-29897,105.14871,9.24484,60,360,1,2018-08-26T12:12:00-08:00,2023-08-30T18:06:00-08:00,Vietnam,"Ấp xóm lá, Xã Hồ Thị Kỷ, H.Thới Bình, Cà Mau"
CGI,452-02-11511-21062,105.791601,21.081744,60,360,1,2018-08-26T12:12:00-08:00,2023-08-30T18:06:00-08:00,Vietnam,"Khu đô thị Ciputra, Phú Thượng, Tây Hồ, Hà Nội"
CGI,452-02-11511-21061,105.791601,21.081744,60,360,1,2018-08-26T12:12:00-08:00,2023-08-30T18:06:00-08:00,Vietnam,"Khu đô thị Ciputra, Phú Thượng, Tây Hồ, Hà Nội"
CGI,452-02-12021-27333,105.81528,21.031648,60,360,1,2018-08-26T12:12:00-08:00,2023-08-30T18:06:00-08:00,Vietnam,"Số 29 Liễu Giai, Ba Đình, TP Hà Nội"
CGI,452-02-12031-23103,105.776013,21.038585,60,360,1,2018-08-26T12:12:00-08:00,2023-08-30T18:06:00-08:00,Vietnam,"Trường Cao đẳng múa Việt Nam, phường Mai Dịch, quận Cầu Giấy"
CGI,452-02-12031-23102,105.776013,21.038585,60,360,1,2018-08-26T12:12:00-08:00,2023-08-30T18:06:00-08:00,Vietnam,"Trường Cao đẳng múa Việt Nam, phường Mai Dịch, quận Cầu Giấy"
CGI,452-02-12031-23101,105.776013,21.038585,60,360,1,2018-08-26T12:12:00-08:00,2023-08-30T18:06:00-08:00,Vietnam,"Trường Cao đẳng múa Việt Nam, phường Mai Dịch, quận Cầu Giấy"
CGI,452-02-12031-22933,105.79555,21.01022,60,360,1,2018-08-26T12:12:00-08:00,2023-08-30T18:06:00-08:00,Vietnam,21/43/121 Trung Kính
CGI,452-02-12031-22932,105.79555,21.01022,60,360,1,2018-08-26T12:12:00-08:00,2023-08-30T18:06:00-08:00,Vietnam,21/43/121 Trung Kính
CGI,452-02-12031-22931,105.79555,21.01022,60,360,1,2018-08-26T12:12:00-08:00,2023-08-30T18:06:00-08:00,Vietnam,21/43/121 Trung Kính
CGI,452-02-12031-23733,105.798675,21.010194,60,360,1,2018-08-26T12:12:00-08:00,2023-08-30T18:06:00-08:00,Vietnam,"Số 146 Trần Duy Hưng, Phường Trung Hòa, Quận Cầu Giấy, Hà Nội"
CGI,452-02-12031-23732,105.798675,21.010194,60,360,1,2018-08-26T12:12:00-08:00,2023-08-30T18:06:00-08:00,Vietnam,"Số 146 Trần Duy Hưng, Phường Trung Hòa, Quận Cầu Giấy, Hà Nội"
CGI,452-02-12031-23731,105.798675,21.010194,60,360,1,2018-08-26T12:12:00-08:00,2023-08-30T18:06:00-08:00,Vietnam,"Số 146 Trần Duy Hưng, Phường Trung Hòa, Quận Cầu Giấy, Hà Nội"
CGI,452-02-12031-23593,105.778706,21.035062,60,360,1,2018-08-26T12:12:00-08:00,2023-08-30T18:06:00-08:00,Vietnam,"44 Trần Bình, phường Mai Dịch, quận Cầu Giấy"
CGI,452-02-12031-23592,105.778706,21.035062,60,360,1,2018-08-26T12:12:00-08:00,2023-08-30T18:06:00-08:00,Vietnam,"44 Trần Bình, phường Mai Dịch, quận Cầu Giấy"
CGI,452-02-12031-23591,105.778706,21.035062,60,360,1,2018-08-26T12:12:00-08:00,2023-08-30T18:06:00-08:00,Vietnam,"44 Trần Bình, phường Mai Dịch, quận Cầu Giấy"
CGI,452-02-12031-23773,105.798602,20.999525,60,360,1,2018-08-26T12:12:00-08:00,2023-08-30T18:06:00-08:00,Vietnam,"Đơn nguyên B, Tòa nhà Licogi 13, số 164 Khuất Duy Tiến, Phường Nhân Chính, Quận Thanh Xuân, Hà Nội"
CGI,452-02-12031-23772,105.798602,20.999525,60,360,1,2018-08-26T12:12:00-08:00,2023-08-30T18:06:00-08:00,Vietnam,"Đơn nguyên B, Tòa nhà Licogi 13, số 164 Khuất Duy Tiến, Phường Nhân Chính, Quận Thanh Xuân, Hà Nội"
CGI,452-02-12031-23771,105.798602,20.999525,60,360,1,2018-08-26T12:12:00-08:00,2023-08-30T18:06:00-08:00,Vietnam,"Đơn nguyên B, Tòa nhà Licogi 13, số 164 Khuất Duy Tiến, Phường Nhân Chính, Quận Thanh Xuân, Hà Nội"
CGI,452-02-12031-23643,105.791027,21.013127,60,360,1,2018-08-26T12:12:00-08:00,2023-08-30T18:06:00-08:00,Vietnam,"Tòa nhà B10B Khu Nam Trung Yên tổ 44, phường Trung Hòa, quận Cầu Giấy"
CGI,452-02-12031-23642,105.791027,21.013127,60,360,1,2018-08-26T12:12:00-08:00,2023-08-30T18:06:00-08:00,Vietnam,"Tòa nhà B10B Khu Nam Trung Yên tổ 44, phường Trung Hòa, quận Cầu Giấy"
CGI,452-02-12031-23641,105.791027,21.013127,60,360,1,2018-08-26T12:12:00-08:00,2023-08-30T18:06:00-08:00,Vietnam,"Tòa nhà B10B Khu Nam Trung Yên tổ 44, phường Trung Hòa, quận Cầu Giấy"
CGI,452-02-12031-23443,105.805235,21.004297,60,360,1,2018-08-26T12:12:00-08:00,2023-08-30T18:06:00-08:00,Vietnam,"""Tòa nhà B.3.7 Hacinco, đường Hoàng Đạo Thúy, phường Nhân Chính, quận Thanh Xuân
( Xí nghiệp Dịch vụ Hacinco – Công ty Đầu tư Xây dựng số 2 Hà Nội)"""
CGI,452-02-12031-23442,105.805235,21.004297,60,360,1,2018-08-26T12:12:00-08:00,2023-08-30T18:06:00-08:00,Vietnam,"""Tòa nhà B.3.7 Hacinco, đường Hoàng Đạo Thúy, phường Nhân Chính, quận Thanh Xuân
( Xí nghiệp Dịch vụ Hacinco – Công ty Đầu tư Xây dựng số 2 Hà Nội)"""
CGI,452-02-12031-23441,105.805235,21.004297,60,360,1,2018-08-26T12:12:00-08:00,2023-08-30T18:06:00-08:00,Vietnam,"""Tòa nhà B.3.7 Hacinco, đường Hoàng Đạo Thúy, phường Nhân Chính, quận Thanh Xuân
( Xí nghiệp Dịch vụ Hacinco – Công ty Đầu tư Xây dựng số 2 Hà Nội)"""
CGI,452-02-12061-22703,105.79383,20.96434,60,360,1,2018-08-26T12:12:00-08:00,2023-08-30T18:06:00-08:00,Vietnam,"CT1 Khu nhà ở nhân viên viện bỏng, đường Lê Hữu Trác, Phường Phúc La, Quận Hà Đông"
CGI,452-02-12061-22702,105.79383,20.96434,60,360,1,2018-08-26T12:12:00-08:00,2023-08-30T18:06:00-08:00,Vietnam,"CT1 Khu nhà ở nhân viên viện bỏng, đường Lê Hữu Trác, Phường Phúc La, Quận Hà Đông"
CGI,452-02-12061-22701,105.79383,20.96434,60,360,1,2018-08-26T12:12:00-08:00,2023-08-30T18:06:00-08:00,Vietnam,"CT1 Khu nhà ở nhân viên viện bỏng, đường Lê Hữu Trác, Phường Phúc La, Quận Hà Đông"
CGI,452-02-12011-23143,105.806854,21.065611,60,360,1,2018-08-26T12:12:00-08:00,2023-08-30T18:06:00-08:00,Vietnam,"Tòa nhà F, ngõ 28 Xuân La, tổ 22 khu dân cư số 3, phường Xuân La, quận Tây Hồ, Hà Nội"
CGI,452-02-12011-23142,105.806854,21.065611,60,360,1,2018-08-26T12:12:00-08:00,2023-08-30T18:06:00-08:00,Vietnam,"Tòa nhà F, ngõ 28 Xuân La, tổ 22 khu dân cư số 3, phường Xuân La, quận Tây Hồ, Hà Nội"
CGI,452-02-12011-23141,105.806854,21.065611,60,360,1,2018-08-26T12:12:00-08:00,2023-08-30T18:06:00-08:00,Vietnam,"Tòa nhà F, ngõ 28 Xuân La, tổ 22 khu dân cư số 3, phường Xuân La, quận Tây Hồ, Hà Nội"
CGI,452-02-12031-23063,105.761778,21.033313,60,360,1,2018-08-26T12:12:00-08:00,2023-08-30T18:06:00-08:00,Vietnam,"Tòa A Chung cư An Lạc, Đường Lưu Hữu Phước, phường Cầu Diễn, quận Nam Từ Liêm"
CGI,452-02-12031-23062,105.761778,21.033313,60,360,1,2018-08-26T12:12:00-08:00,2023-08-30T18:06:00-08:00,Vietnam,"Tòa A Chung cư An Lạc, Đường Lưu Hữu Phước, phường Cầu Diễn, quận Nam Từ Liêm"
CGI,452-02-12031-23061,105.761778,21.033313,60,360,1,2018-08-26T12:12:00-08:00,2023-08-30T18:06:00-08:00,Vietnam,"Tòa A Chung cư An Lạc, Đường Lưu Hữu Phước, phường Cầu Diễn, quận Nam Từ Liêm"
CGI,452-02-12011-23403,105.803586,21.044528,60,360,1,2018-08-26T12:12:00-08:00,2023-08-30T18:06:00-08:00,Vietnam,"Số 1 Phùng Chí Kiên, Phường Nghĩa Đô, Quận Cầu Giấy, Hà Nội"
CGI,452-02-432-32574,104.936901,9.78172,60,360,1,2018-08-26T12:12:00-08:00,2023-08-30T18:06:00-08:00,Vietnam,"Trạm viễn thông Xẻo Bần, ấp Xẻo Bần B, xã Thuận Hòa, huyện An Minh, tỉnh Kiên Giang."
CGI,452-02-643-43324,103.217774,21.504588,60,360,1,2018-08-26T12:12:00-08:00,2023-08-30T18:06:00-08:00,Vietnam,"Bản Ẳng cang, xã Ảng Cang, huyện Mường Ẳng"
CGI,452-02-254-35015,106.768041,10.789382,60,360,1,2018-08-26T12:12:00-08:00,2023-08-30T18:06:00-08:00,Vietnam,"403A Nguyễn Duy Trinh, P. Bình Trưng Đông"
CGI,452-02-254-35014,106.768041,10.789382,60,360,1,2018-08-26T12:12:00-08:00,2023-08-30T18:06:00-08:00,Vietnam,"403A Nguyễn Duy Trinh, P. Bình Trưng Đông"
CGI,452-02-545-57313,105.66483,18.68042,60,360,1,2018-08-26T12:12:00-08:00,2023-08-30T18:06:00-08:00,Vietnam,"99 Trường Chinh, Khối 12, phường Lê Lợi, thành phố Vinh, tỉnh Nghệ An"
CGI,452-02-545-57312,105.66483,18.68042,60,360,1,2018-08-26T12:12:00-08:00,2023-08-30T18:06:00-08:00,Vietnam,"99 Trường Chinh, Khối 12, phường Lê Lợi, thành phố Vinh, tỉnh Nghệ An"
CGI,452-02-545-57311,105.66483,18.68042,60,360,1,2018-08-26T12:12:00-08:00,2023-08-30T18:06:00-08:00,Vietnam,"99 Trường Chinh, Khối 12, phường Lê Lợi, thành phố Vinh, tỉnh Nghệ An"
CGI,452-02-11601-23563,105.413464,21.030403,60,360,1,2018-08-26T12:12:00-08:00,2023-08-30T18:06:00-08:00,Vietnam,"Xóm Quýt, xã Yên Bài, huyện Ba Vì"
CGI,452-02-11601-23562,105.413464,21.030403,60,360,1,2018-08-26T12:12:00-08:00,2023-08-30T18:06:00-08:00,Vietnam,"Xóm Quýt, xã Yên Bài, huyện Ba Vì"
CGI,452-02-11601-23561,105.413464,21.030403,60,360,1,2018-08-26T12:12:00-08:00,2023-08-30T18:06:00-08:00,Vietnam,"Xóm Quýt, xã Yên Bài, huyện Ba Vì"
CGI,452-02-430-30309,105.05393,9.13758,60,360,1,2018-08-26T12:12:00-08:00,2023-08-30T18:06:00-08:00,Vietnam,"Ấp Ông Bích, xã Khánh Bình, TVT, CM"
CGI,452-02-430-30308,105.05393,9.13758,60,360,1,2018-08-26T12:12:00-08:00,2023-08-30T18:06:00-08:00,Vietnam,"Ấp Ông Bích, xã Khánh Bình, TVT, CM"
CGI,452-02-430-30307,105.05393,9.13758,60,360,1,2018-08-26T12:12:00-08:00,2023-08-30T18:06:00-08:00,Vietnam,"Ấp Ông Bích, xã Khánh Bình, TVT, CM"
CGI,452-02-543-43523,105.72078,19.17379,60,360,1,2018-08-26T12:12:00-08:00,2023-08-30T18:06:00-08:00,Vietnam,"Thôn Chí Thành, xã Quỳnh Bảng, huyện Quỳnh Lưu, tỉnh Nghệ An"
CGI,452-02-543-43522,105.72078,19.17379,60,360,1,2018-08-26T12:12:00-08:00,2023-08-30T18:06:00-08:00,Vietnam,"Thôn Chí Thành, xã Quỳnh Bảng, huyện Quỳnh Lưu, tỉnh Nghệ An"
CGI,452-02-543-43521,105.72078,19.17379,60,360,1,2018-08-26T12:12:00-08:00,2023-08-30T18:06:00-08:00,Vietnam,"Thôn Chí Thành, xã Quỳnh Bảng, huyện Quỳnh Lưu, tỉnh Nghệ An"
CGI,452-02-11581-29111,105.870118,21.053582,60,360,1,2018-08-26T12:12:00-08:00,2023-08-30T18:06:00-08:00,Vietnam,"Tòa nhà Cán bộ Cảnh sát Điều tra và Hướng dẫn ma túy P6, C17 Ngọc Thụy, Phường Ngọc Thụy, quận Long Biên"
CGI,452-02-245-25416,106.624383,10.859348,60,360,1,2018-08-26T12:12:00-08:00,2023-08-30T18:06:00-08:00,Vietnam,"5/49/15A Tân Chánh Hiệp 34 , Quận 12"
CGI,452-02-245-25415,106.624383,10.859348,60,360,1,2018-08-26T12:12:00-08:00,2023-08-30T18:06:00-08:00,Vietnam,"5/49/15A Tân Chánh Hiệp 34 , Quận 12"
CGI,452-02-245-25414,106.624383,10.859348,60,360,1,2018-08-26T12:12:00-08:00,2023-08-30T18:06:00-08:00,Vietnam,"5/49/15A Tân Chánh Hiệp 34 , Quận 12"
CGI,452-02-11511-28132,105.807185,20.998928,60,360,1,2018-08-26T12:12:00-08:00,2023-08-30T18:06:00-08:00,Vietnam,"Số 69 Vũ Trọng Phụng,P.Thanh Xuân Trung,Thanh Xuân, Hà Nội"
CGI,452-02-11511-28131,105.807185,20.998928,60,360,1,2018-08-26T12:12:00-08:00,2023-08-30T18:06:00-08:00,Vietnam,"Số 69 Vũ Trọng Phụng,P.Thanh Xuân Trung,Thanh Xuân, Hà Nội"
CGI,452-02-545-57293,105.653989,18.666144,60,360,1,2018-08-26T12:12:00-08:00,2023-08-30T18:06:00-08:00,Vietnam,"Chung cư Tecco Nam Thanh, 51A Ngõ 86, Khối 12, phường Cửa Nam, thành phố Vinh, tỉnh Nghệ An"
CGI,452-02-545-57292,105.653989,18.666144,60,360,1,2018-08-26T12:12:00-08:00,2023-08-30T18:06:00-08:00,Vietnam,"Chung cư Tecco Nam Thanh, 51A Ngõ 86, Khối 12, phường Cửa Nam, thành phố Vinh, tỉnh Nghệ An"
CGI,452-02-545-57291,105.653989,18.666144,60,360,1,2018-08-26T12:12:00-08:00,2023-08-30T18:06:00-08:00,Vietnam,"Chung cư Tecco Nam Thanh, 51A Ngõ 86, Khối 12, phường Cửa Nam, thành phố Vinh, tỉnh Nghệ An"
CGI,452-02-11571-28021,105.853984,21.026803,60,360,1,2018-08-26T12:12:00-08:00,2023-08-30T18:06:00-08:00,Vietnam,"Số 89 Thịnh Liệt, quận Hoàng Mai, TP Hà Nội"
CGI,452-02-11611-23953,105.686641,20.898267,60,360,1,2018-08-26T12:12:00-08:00,2023-08-30T18:06:00-08:00,Vietnam,"Thôn Dền Khê, xã Đại Yên, huyện Chương Mỹ"
CGI,452-02-11611-23952,105.686641,20.898267,60,360,1,2018-08-26T12:12:00-08:00,2023-08-30T18:06:00-08:00,Vietnam,"Thôn Dền Khê, xã Đại Yên, huyện Chương Mỹ"
CGI,452-02-11611-23951,105.686641,20.898267,60,360,1,2018-08-26T12:12:00-08:00,2023-08-30T18:06:00-08:00,Vietnam,"Thôn Dền Khê, xã Đại Yên, huyện Chương Mỹ"
CGI,452-02-11511-23743,105.74702,21.050416,60,360,1,2018-08-26T12:12:00-08:00,2023-08-30T18:06:00-08:00,Vietnam,"Số 2 ngõ 59/66, đường Văn Tiến Dũng, phường Phúc Diễn, quận Bắc Từ Liêm"
CGI,452-02-11511-23742,105.74702,21.050416,60,360,1,2018-08-26T12:12:00-08:00,2023-08-30T18:06:00-08:00,Vietnam,"Số 2 ngõ 59/66, đường Văn Tiến Dũng, phường Phúc Diễn, quận Bắc Từ Liêm"
CGI,452-02-11511-23741,105.74702,21.050416,60,360,1,2018-08-26T12:12:00-08:00,2023-08-30T18:06:00-08:00,Vietnam,"Số 2 ngõ 59/66, đường Văn Tiến Dũng, phường Phúc Diễn, quận Bắc Từ Liêm"
CGI,452-02-11611-23243,105.675894,20.826675,60,360,1,2018-08-26T12:12:00-08:00,2023-08-30T18:06:00-08:00,Vietnam,"Thôn Thướp, xã Trần Phú, huyện Chương Mỹ"
CGI,452-02-11611-23242,105.675894,20.826675,60,360,1,2018-08-26T12:12:00-08:00,2023-08-30T18:06:00-08:00,Vietnam,"Thôn Thướp, xã Trần Phú, huyện Chương Mỹ"
CGI,452-02-11611-23241,105.675894,20.826675,60,360,1,2018-08-26T12:12:00-08:00,2023-08-30T18:06:00-08:00,Vietnam,"Thôn Thướp, xã Trần Phú, huyện Chương Mỹ"
CGI,452-02-11611-23623,105.75456,20.946777,60,360,1,2018-08-26T12:12:00-08:00,2023-08-30T18:06:00-08:00,Vietnam,"Phường Phú Lãm, quận Hà Đông, tp Hà Nội"
CGI,452-02-11611-23622,105.75456,20.946777,60,360,1,2018-08-26T12:12:00-08:00,2023-08-30T18:06:00-08:00,Vietnam,"Phường Phú Lãm, quận Hà Đông, tp Hà Nội"
CGI,452-02-11611-23621,105.75456,20.946777,60,360,1,2018-08-26T12:12:00-08:00,2023-08-30T18:06:00-08:00,Vietnam,"Phường Phú Lãm, quận Hà Đông, tp Hà Nội"
CGI,452-02-11571-21072,105.8502,20.987024,60,360,1,2018-08-26T12:12:00-08:00,2023-08-30T18:06:00-08:00,Vietnam,"70 Nguyễn Đức Cảnh, P.Tương Mai, Hoàng Mai, Hà Nội"
CGI,452-02-11571-21071,105.8502,20.987024,60,360,1,2018-08-26T12:12:00-08:00,2023-08-30T18:06:00-08:00,Vietnam,"70 Nguyễn Đức Cảnh, P.Tương Mai, Hoàng Mai, Hà Nội"
